{
  "photos": {
      "page": 1,
      "pages": 1911,
      "perpage": 100,
      "total": "191051",
      "photo": [
          {
              "id": "41463558795",
              "owner": "12208635@N07",
              "secret": "a2ae9793df",
              "server": "1735",
              "farm": 2,
              "title": "Every Kitten Wants to Rule the World :-)",
              "ispublic": 1,
              "isfriend": 0,
              "isfamily": 0
          },
          {
              "id": "27495105727",
              "owner": "69036952@N05",
              "secret": "df56fea9ae",
              "server": "898",
              "farm": 1,
              "title": "Gypsy Dreams",
              "ispublic": 1,
              "isfriend": 0,
              "isfamily": 0
          }
      ]
  },
  "stat": "ok"
}